<?xml version="1.0" encoding="UTF-8" standalone="no"?>
<svg
   xml:space="preserve"
   fill-rule="evenodd"
   stroke-linejoin="round"
   stroke-miterlimit="2"
   clip-rule="evenodd"
   viewBox="0 0 599 160"
   version="1.1"
   id="svg40"
   sodipodi:docname="logo.svg"
   inkscape:version="1.2.2 (732a01da63, 2022-12-09, custom)"
   xmlns:inkscape="http://www.inkscape.org/namespaces/inkscape"
   xmlns:sodipodi="http://sodipodi.sourceforge.net/DTD/sodipodi-0.dtd"
   xmlns="http://www.w3.org/2000/svg"
   xmlns:svg="http://www.w3.org/2000/svg"><defs
   id="defs44"><rect
     x="227.80644"
     y="33.252895"
     width="210.64185"
     height="114.04654"
     id="rect381" /><rect
     x="227.80644"
     y="33.252895"
     width="210.64185"
     height="114.04654"
     id="rect381-3" /></defs><sodipodi:namedview
   id="namedview42"
   pagecolor="#ffffff"
   bordercolor="#999999"
   borderopacity="1"
   inkscape:showpageshadow="0"
   inkscape:pageopacity="0"
   inkscape:pagecheckerboard="0"
   inkscape:deskcolor="#d1d1d1"
   showgrid="false"
   inkscape:zoom="1.8155763"
   inkscape:cx="231.3315"
   inkscape:cy="49.84643"
   inkscape:window-width="1874"
   inkscape:window-height="1016"
   inkscape:window-x="1966"
   inkscape:window-y="27"
   inkscape:window-maximized="1"
   inkscape:current-layer="svg40" />
  
  
  
  <path
   d="M153.676 156.394c.432-.406.943-1.088 1.35-2.15.393-1.022.812-2.752 1.166-5.085 1.77-11.363 3.067-39.528 3.565-67.707.511-28.179.223-56.37-1.127-67.786-.275-2.36-.63-4.103-.983-5.138-.38-1.075-.865-1.77-1.271-2.189-.407-.432-1.088-.944-2.15-1.35-1.022-.406-2.752-.812-5.098-1.18C137.778 2.054 109.612.757 81.42.246c-28.178-.498-56.37-.21-67.786 1.14-2.346.275-4.089.629-5.124.983-1.075.367-1.783.865-2.202 1.271-.42.406-.944 1.088-1.35 2.15-.393 1.022-.813 2.752-1.166 5.098C2.035 22.237.738 50.403.227 78.582c-.498 28.191-.223 56.383 1.127 67.799.275 2.346.629 4.09.996 5.124.367 1.075.852 1.783 1.258 2.202.42.42 1.101.944 2.163 1.35 1.022.394 2.739.8 5.085 1.167 11.363 1.756 39.529 3.054 67.707 3.565 28.179.498 56.37.21 67.786-1.14 2.36-.276 4.103-.63 5.138-.984 1.075-.366 1.77-.865 2.189-1.27ZM150.543 11.95c-1.454-.289-4.456-.852-7.379-1.167-13.21-1.402-37.536-2.425-61.875-2.857-24.338-.433-48.69-.288-61.94.642-2.923.21-5.95.656-7.418.905-.302 1.454-.852 4.456-1.167 7.378C9.35 30.062 8.34 54.387 7.894 78.726c-.433 24.338-.289 48.677.642 61.94.21 2.923.668 5.95.904 7.419 1.468.288 4.47.852 7.392 1.166 13.212 1.416 37.537 2.425 61.862 2.87 24.339.433 48.69.289 61.94-.655 2.937-.196 5.951-.655 7.42-.891.3-1.468.864-4.47 1.179-7.392 1.402-13.211 2.424-37.537 2.857-61.875.432-24.326.288-48.677-.642-61.928-.21-2.936-.656-5.95-.905-7.431ZM135 135.319l5.413 5.44c.393-.394.865-1.023 1.232-2.02.315-.851.642-2.293.918-4.246 1.27-9.122 1.965-31.717 2.031-54.312.052-22.583-.524-45.178-1.743-54.313-.262-1.953-.59-3.395-.891-4.247-.367-.996-.84-1.638-1.232-2.031-.38-.38-1.023-.865-2.006-1.22-.865-.327-2.306-.655-4.246-.917-9.135-1.271-31.717-1.966-54.313-2.031-22.595-.053-45.19.524-54.326 1.743-1.94.262-3.381.59-4.246.891-.996.367-1.638.839-2.018 1.232-.394.38-.865 1.023-1.232 2.005-.315.852-.643 2.294-.918 4.247-1.258 9.135-1.966 31.717-2.018 54.313-.066 22.595.51 45.178 1.743 54.313.262 1.953.577 3.394.891 4.26.354.995.839 1.624 1.219 2.018.38.38 1.022.865 2.018 1.232.852.314 2.294.642 4.247.917 9.122 1.258 31.717 1.966 54.3 2.019 22.595.065 45.19-.525 54.325-1.744 1.953-.262 3.395-.576 4.247-.89.996-.355 1.638-.84 2.018-1.22L135 135.32Zm-.065-109.963c-1.232-.21-3.303-.55-5.335-.733-10.563-.957-30.013-1.481-49.463-1.534-19.437-.04-38.887.367-49.463 1.285-2.019.17-4.103.484-5.335.694a65.39 65.39 0 0 0-.734 5.334c-.97 10.577-1.48 30.027-1.533 49.464-.052 19.45.367 38.9 1.271 49.477.17 2.018.498 4.102.708 5.334a65.39 65.39 0 0 0 5.334.734c10.577.97 30.014 1.48 49.464 1.533 19.45.053 38.886-.367 49.463-1.271a74.236 74.236 0 0 0 5.347-.708c.21-1.232.538-3.316.734-5.334.957-10.577 1.468-30.014 1.52-49.464.053-19.45-.353-38.9-1.27-49.463-.171-2.032-.499-4.116-.708-5.348Zm-10.236 102.125.013-.013a5.042 5.042 0 0 0 1.192-1.808c.276-.682.564-1.822.826-3.369 1.14-6.841 2.136-23.814 2.648-40.8.51-16.986.524-33.998-.21-40.892-.17-1.56-.393-2.713-.63-3.407-.3-.918-.746-1.52-1.087-1.888-.354-.367-.918-.825-1.822-1.192-.668-.276-1.809-.564-3.368-.826-6.829-1.14-23.801-2.136-40.8-2.648-16.986-.51-33.985-.524-40.879.21-1.56.17-2.713.393-3.408.63-.93.3-1.52.733-1.887 1.087-.367.34-.839.917-1.206 1.822-.262.668-.563 1.808-.825 3.355-1.14 6.842-2.137 23.814-2.635 40.8-.51 17-.537 33.998.197 40.892.17 1.56.406 2.713.629 3.408.314.917.747 1.52 1.088 1.887.354.367.917.839 1.822 1.193.681.275 1.821.576 3.368.839 6.828 1.14 23.814 2.136 40.8 2.634 16.986.511 33.998.537 40.879-.21 1.572-.157 2.726-.393 3.407-.616.918-.314 1.52-.734 1.888-1.088Zm-5.243-5.596-.013.013-.013.013 2.647 2.779-2.62-2.805Zm2.032-80.958c-5.911-1.167-23.08-2.11-40.25-2.621-17.17-.512-34.352-.59-40.341.21-1.154 5.923-2.097 23.093-2.609 40.262-.524 17.17-.602 34.352.21 40.342 5.924 1.153 23.08 2.097 40.25 2.608 17.17.51 34.365.603 40.341-.21 1.167-5.924 2.11-23.08 2.621-40.263.511-17.17.59-34.352-.222-40.328Zm-15.374 70.565 2.45 2.949c.46-.367 1.442-1.665 1.993-4.05 1.048-4.535 2.438-15.846 3.5-27.196 1.06-11.35 1.782-22.74 1.585-27.38-.105-2.463-.839-3.918-1.219-4.364-.38-.458-1.664-1.441-4.063-1.992-4.521-1.061-15.845-2.438-27.195-3.5-11.35-1.06-22.727-1.782-27.38-1.585-2.45.105-3.905.839-4.364 1.219-.446.367-1.429 1.664-1.992 4.063-1.049 4.521-2.438 15.845-3.5 27.195-1.048 11.35-1.782 22.727-1.572 27.38.105 2.45.825 3.905 1.205 4.364.38.446 1.678 1.429 4.063 1.992 4.535 1.049 15.846 2.438 27.196 3.5 11.35 1.048 22.727 1.782 27.38 1.573 2.45-.105 3.905-.84 4.364-1.206l-2.451-2.962Zm1.73-54.588c-4.26-.669-15.74-2.412-25.387-3.303-9.646-.905-21.259-1.31-25.57-1.442-.67 4.273-2.412 15.754-3.317 25.4-.904 9.647-1.297 21.259-1.428 25.57 4.273.67 15.74 2.412 25.387 3.317 9.66.89 21.258 1.297 25.583 1.428.669-4.272 2.412-15.74 3.303-25.387.905-9.66 1.31-21.258 1.429-25.583Zm-13.958 43.04c.367-.261 1.31-1.126 1.887-2.922.734-2.254 1.927-7.942 2.949-13.657 1.022-5.727 1.86-11.468 1.966-13.84.078-1.887-.511-3.028-.76-3.395-.263-.367-1.128-1.31-2.936-1.9-2.255-.72-7.943-1.914-13.657-2.936s-11.468-1.86-13.827-1.966c-1.9-.078-3.04.498-3.408.76-.367.263-1.31 1.128-1.887 2.936-.734 2.241-1.927 7.93-2.95 13.657-1.008 5.714-1.86 11.468-1.965 13.827-.079 1.9.511 3.041.773 3.408.25.367 1.114 1.31 2.923 1.887 2.254.721 7.942 1.914 13.657 2.936 5.727 1.022 11.468 1.874 13.84 1.966 1.887.079 3.028-.498 3.395-.76Zm-1.023-28.899c-5.164-1.297-16.514-3.316-21.848-3.892-1.284 5.164-3.303 16.5-3.893 21.835 5.204 1.298 16.554 3.329 21.849 3.906 1.297-5.204 3.316-16.554 3.892-21.849Z"
   id="path38" />
<text
   xml:space="preserve"
   id="text379"
   style="font-style:normal;font-variant:normal;font-weight:bold;font-stretch:normal;font-size:48px;font-family:Dyuthi;-inkscape-font-specification:'Dyuthi Bold';white-space:pre;shape-inside:url(#rect381);fill:#010101;fill-opacity:1;stroke-width:5.66929"
   transform="matrix(1.4434658,0,0,1.4434658,-157.24882,21.801772)"><tspan
     x="227.80664"
     y="72.861328"
     id="tspan1593">site</tspan></text><text
   xml:space="preserve"
   id="text379-6"
   style="font-style:normal;font-variant:normal;font-weight:bold;font-stretch:normal;font-size:48px;font-family:Dyuthi;-inkscape-font-specification:'Dyuthi Bold';white-space:pre;shape-inside:url(#rect381-3);display:inline;fill:#010101;fill-opacity:1;stroke-width:5.66929"
   transform="matrix(1.4434658,0,0,1.4434658,-158.08332,-34.731752)"><tspan
     x="227.80664"
     y="72.861328"
     id="tspan1595">Mon super</tspan></text></svg>
